…
```r
dat <- as_tibble(dat)
```

What I like from `tibbles` is that when you print them on the console, these actually look nice:
 

```r
dat
```

```
## # A tibble: 2,164 × 100
##    photoid school hispanic female1 female2 female3 female4 grades1 grades2
##      <int>  <int>    <dbl>   <int>   <int>   <int>   <int>   <dbl>   <dbl>
##  1       1    111        1      NA      NA       0       0    NA      NA  
##  2       2    111        1       0      NA      NA       0     3      NA  
##  3       7    111        0       1       1       1       1     5       4.5
##  4      13    111        1       1       1       1       1     2.5     2.5
##  5      14    111        1       1       1       1      NA     3       3.5
##  6      15    111        1       0       0       0       0     2.5     2.5
##  7      20    111        1       1       1       1       1     2.5     2.5
##  8      22    111        1      NA      NA       0       0    NA      NA  
##  9      25    111        0       1       1      NA       1     4.5     3.5
## 10      27    111        1       0      NA       0       0     3.5    NA  
## # … with 2,154 more rows, and 91 more variables: grades3 <dbl>, grades4 <dbl>,
## #   eversmk1 <int>, eversmk2 <int>, eversmk3 <int>, eversmk4 <int>,
## #   everdrk1 <int>, everdrk2 <int>, everdrk3 <int>, everdrk4 <int>,
## #   home1 <int>, home2 <int>, home3 <int>, home4 <int>, sch_friend11 <int>,
## #   sch_friend12 <int>, sch_friend13 <int>, sch_friend14 <int>,
## #   sch_friend15 <int>, sch_friend16 <int>, sch_friend17 <int>,
## #   sch_friend18 <int>, sch_friend19 <int>, sch_friend110 <int>, …
```
…
Let's take a look at this step by step:

1.  First, we subset the data: We want to keep `id, school, sch_friend*.` For the later, we use the function `starts_with` (from the `tidyselect` package). The latter allows us to select all variables that start with the word "`sch_friend`", which means that `sch_friend11, sch_friend12, ...` will be selected.

    
    ```r
    dat %>% 
      select(id, school, starts_with("sch_friend"))
    ```
    
    ```
    ## # A tibble: 2,164 × 78
    ##         id school sch_friend11 sch_friend12 sch_friend13 sch_friend14
    ##      <dbl>  <int>        <int>        <int>        <int>        <int>
    ##  1 1110001    111           NA           NA           NA           NA
    ##  2 1110002    111          424          423          426          289
    ##  3 1110007    111          629          505           NA           NA
    ##  4 1110013    111          232          569           NA           NA
    ##  5 1110014    111          582          134           41          592
    ##  6 1110015    111           26          488           81          138
    ##  7 1110020    111          528           NA          492          395
    ##  8 1110022    111           NA           NA           NA           NA
    ##  9 1110025    111          135          185          553           84
    ## 10 1110027    111          346          168          559            5
    ## # … with 2,154 more rows, and 72 more variables: sch_friend15 <int>,
    ## #   sch_friend16 <int>, sch_friend17 <int>, sch_friend18 <int>,
    ## #   sch_friend19 <int>, sch_friend110 <int>, sch_friend111 <int>,
    ## #   sch_friend112 <int>, sch_friend113 <int>, sch_friend114 <int>,
    ## #   sch_friend115 <int>, sch_friend116 <int>, sch_friend117 <int>,
    ## #   sch_friend118 <int>, sch_friend119 <int>, sch_friend21 <int>,
    ## #   sch_friend22 <int>, sch_friend23 <int>, sch_friend24 <int>, …
    ```
    
2.  Then, we reshape it to _long_ format: By transposing all the `sch_friend*` to long format. We do this using the function `gather` (from the `tidyr` package); an alternative to the `reshape` function, which I find easier to use. Let's see how it works:

    
    ```r
    dat %>% 
      select(id, school, starts_with("sch_friend")) %>%
      gather(key = "varname", value = "content", -id, -school)
    ```
    
    ```
    ## # A tibble: 164,464 × 4
    ##         id school varname      content
    ##      <dbl>  <int> <chr>          <int>
    ##  1 1110001    111 sch_friend11      NA
    ##  2 1110002    111 sch_friend11     424
    ##  3 1110007    111 sch_friend11     629
    ##  4 1110013    111 sch_friend11     232
    ##  5 1110014    111 sch_friend11     582
    ##  6 1110015    111 sch_friend11      26
    ##  7 1110020    111 sch_friend11     528
    ##  8 1110022    111 sch_friend11      NA
    ##  9 1110025    111 sch_friend11     135
    ## 10 1110027    111 sch_friend11     346
    ## # … with 164,454 more rows
    ```
…
    Also, notice that we passed from 2164 rows to 19 (nominations) * 2164 (subjects) * 4 (waves) = 164464 rows, as expected.
    
3.  As the nomination data can be empty for some cells, we need to take care of those cases, the `NA`s, so we filter the data:

    
    ```r
    dat %>% 
      select(id, school, starts_with("sch_friend")) %>%
      gather(key = "varname", value = "content", -id, -school) %>%
      filter(!is.na(content))
    ```
    
    ```
    ## # A tibble: 39,561 × 4
    ##         id school varname      content
    ##      <dbl>  <int> <chr>          <int>
    ##  1 1110002    111 sch_friend11     424
    ##  2 1110007    111 sch_friend11     629
    ##  3 1110013    111 sch_friend11     232
    ##  4 1110014    111 sch_friend11     582
    ##  5 1110015    111 sch_friend11      26
    ##  6 1110020    111 sch_friend11     528
    ##  7 1110025    111 sch_friend11     135
    ##  8 1110027    111 sch_friend11     346
    ##  9 1110029    111 sch_friend11     369
    ## 10 1110030    111 sch_friend11     462
    ## # … with 39,551 more rows
    ```
…
    
    ```r
    dat %>% 
      select(id, school, starts_with("sch_friend")) %>%
      gather(key = "varname", value = "content", -id, -school) %>%
      filter(!is.na(content)) %>%
      mutate(
        friendid = school*10000 + content,
        year     = as.integer(str_extract(varname, "(?<=[a-z])[0-9]")),
        nnom     = as.integer(str_extract(varname, "(?<=[a-z][0-9])[0-9]+"))
        )
    ```
    
    ```
    ## # A tibble: 39,561 × 7
    ##         id school varname      content friendid  year  nnom
    ##      <dbl>  <int> <chr>          <int>    <dbl> <int> <int>
    ##  1 1110002    111 sch_friend11     424  1110424     1     1
    ##  2 1110007    111 sch_friend11     629  1110629     1     1
    ##  3 1110013    111 sch_friend11     232  1110232     1     1
    ##  4 1110014    111 sch_friend11     582  1110582     1     1
    ##  5 1110015    111 sch_friend11      26  1110026     1     1
    ##  6 1110020    111 sch_friend11     528  1110528     1     1
    ##  7 1110025    111 sch_friend11     135  1110135     1     1
    ##  8 1110027    111 sch_friend11     346  1110346     1     1
    ##  9 1110029    111 sch_friend11     369  1110369     1     1
    ## 10 1110030    111 sch_friend11     462  1110462     1     1
    ## # … with 39,551 more rows
    ```
…
```
## `summarise()` has grouped output by 'to', 'to_name'. You can override using the `.groups` argument.
```

```r
indeg_nom_cor
```

```
## # A tibble: 1,561 × 5
## # Groups:   to, to_name [1,561]
##       to to_name school indeg nom_avg
##    <dbl> <chr>    <int> <int>   <dbl>
##  1     2 1110002    111    22   0.222
##  2     3 1110007    111     7   0.175
##  3     4 1110013    111     6   0.171
##  4     5 1110014    111    19   0.134
##  5     6 1110015    111     3   0.15 
##  6     7 1110020    111     6   0.154
##  7     9 1110025    111     6   0.214
##  8    10 1110027    111    13   0.220
##  9    11 1110029    111    14   0.131
## 10    12 1110030    111     6   0.222
## # … with 1,551 more rows
```
…
