Applied SNA with R
…
Let’s take a look at this step by step:

First, we subset the data: We want to keep id, School, sch_friend*

dat_filtered %>% 
  select(id, School, starts_with("sch_friend"))

## # A tibble: 2,164 x 78
##         id School sch_f… sch_f… sch_f… sch_… sch_… sch_… sch_… sch_… sch_…
##      <dbl>  <int>  <int>  <int>  <int> <int> <int> <int> <int> <int> <int>
##  1 1110001    111    347    420    442   257    NA    NA    NA    NA    NA
##  2 1110002    111    424    205    536    NA    36    NA    NA    NA    NA
##  3 1110007    111     NA    505     NA    NA    NA    NA    NA    NA    NA
##  4 1110013    111    608    387     93   119   627   610   569    NA    NA
##  5 1110014    111     NA     NA    599    NA   134    NA   377    41   233
##  6 1110015    111     NA    265     NA   313   339    NA    NA    NA    NA
##  7 1110020    111     79    214    440    NA    NA    NA    NA   188   278
##  8 1110022    111     37    258     71   143   427   470   371    NA    NA
##  9 1110025    111     NA    185     NA    NA    NA    NA    NA    NA    NA
## 10 1110027    111     95    166    248   330   346    NA    NA    NA    NA
## # ... with 2,154 more rows, and 67 more variables: sch_friend410 <int>,
## #   sch_friend411 <int>, sch_friend412 <int>, sch_friend413 <int>,
## #   sch_friend414 <int>, sch_friend415 <int>, sch_friend416 <int>,
## #   sch_friend417 <int>, sch_friend418 <int>, sch_friend419 <int>,
## #   sch_friend31 <int>, sch_friend32 <int>, sch_friend33 <int>,
## #   sch_friend34 <int>, sch_friend35 <int>, sch_friend36 <int>,
## #   sch_friend37 <int>, sch_friend38 <int>, sch_friend39 <int>,
## #   sch_friend310 <int>, sch_friend311 <int>, sch_friend312 <int>,
## #   sch_friend313 <int>, sch_friend314 <int>, sch_friend315 <int>,
…
Then, we reshape it to long format: By transposing all the sch_friend* to long

dat_filtered %>% 
  select(id, School, starts_with("sch_friend")) %>%
  gather(key = "varname", value = "content", -id, -School)

## # A tibble: 164,464 x 4
##         id School varname      content
##      <dbl>  <int> <chr>          <int>
##  1 1110001    111 sch_friend41     347
##  2 1110002    111 sch_friend41     424
##  3 1110007    111 sch_friend41      NA
##  4 1110013    111 sch_friend41     608
##  5 1110014    111 sch_friend41      NA
##  6 1110015    111 sch_friend41      NA
##  7 1110020    111 sch_friend41      79
##  8 1110022    111 sch_friend41      37
##  9 1110025    111 sch_friend41      NA
## 10 1110027    111 sch_friend41      95
## # ... with 164,454 more rows

We remove all the NAs

dat_filtered %>% 
  select(id, School, starts_with("sch_friend")) %>%
  gather(key = "varname", value = "content", -id, -School) %>%
  filter(!is.na(content))

## # A tibble: 39,561 x 4
##         id School varname      content
##      <dbl>  <int> <chr>          <int>
##  1 1110001    111 sch_friend41     347
##  2 1110002    111 sch_friend41     424
##  3 1110013    111 sch_friend41     608
##  4 1110020    111 sch_friend41      79
##  5 1110022    111 sch_friend41      37
##  6 1110027    111 sch_friend41      95
##  7 1110029    111 sch_friend41     190
##  8 1110030    111 sch_friend41      28
##  9 1110032    111 sch_friend41     484
## 10 1110035    111 sch_friend41     512
## # ... with 39,551 more rows

And finally, we create three new variables from this dataset: friendid, year, and nom_num (nomination number). All this using regular expressions:

dat_filtered %>% 
  select(id, School, starts_with("sch_friend")) %>%
  gather(key = "varname", value = "content", -id, -School) %>%
  filter(!is.na(content)) %>%
  mutate(
    friendid = School*10000 + content,
    year     = str_extract(varname, "(?<=[a-z])[0-9]"),
    nnom     = str_extract(varname, "(?<=[a-z][0-9])[0-9]+")
    )

## # A tibble: 39,561 x 7
##         id School varname      content friendid year  nnom 
##      <dbl>  <int> <chr>          <int>    <dbl> <chr> <chr>
##  1 1110001    111 sch_friend41     347  1110347 4     1    
##  2 1110002    111 sch_friend41     424  1110424 4     1    
##  3 1110013    111 sch_friend41     608  1110608 4     1    
##  4 1110020    111 sch_friend41      79  1110079 4     1    
##  5 1110022    111 sch_friend41      37  1110037 4     1    
##  6 1110027    111 sch_friend41      95  1110095 4     1    
##  7 1110029    111 sch_friend41     190  1110190 4     1    
##  8 1110030    111 sch_friend41      28  1110028 4     1    
##  9 1110032    111 sch_friend41     484  1110484 4     1    
## 10 1110035    111 sch_friend41     512  1110512 4     1    
## # ... with 39,551 more rows
…
